会員ID,ログイン名,ハンドル名,ステータス（会員・退会者）,メールアドレス,電話番号,登録日,最終ログイン日,コイン購入金額（合計）,コイン購入回数（合計）,携帯機種情報,携帯シリアル,性別,広告コード（自分の広告コード）,連絡先住所
10101,f1,furu,会員,furuya@ark-com.jp,,2010-05-17 22:10:00,2010-08-23 13:11:58,,,,,男性,NOP,
10100,kaku,kakusei,会員,django@ark-com.jp,00099999999,2010-05-17 19:51:00,2010-05-19 14:29:45,,,,,男性,NOP,
10099,at3,menber9,会員,kizakisilver@yahoo.co.jp,,2010-05-14 21:35:00,,,,,,男性,NOP,
10098,at2,north-wave,会員,kizakisilver@yahoo.co.jp,,2010-05-14 21:34:00,2010-07-09 15:57:34,15525,,,,男性,NOP,
10097,at1,lakdjiek-4a-51,会員,kizakisilver@yahoo.co.jp,,2010-05-14 21:34:00,2010-08-31 10:30:25,50055,,,,男性,NOP,
10094,chin,恭親王奕?,会員,kizakisilver@yahoo.co.jp,,2010-05-12 19:24:00,2010-07-06 12:24:11,,,,,男性,NOP,
10092,furu,furu PC,会員,furuya@ark-com.jp,09052161725,2010-05-11 21:29:00,2010-05-11 21:30:21,,,,,男性,NOP,
10089,arkintel,パンダ,会員,kizakisilver@yahoo.co.jp,09070939364,2010-05-08 17:06:00,2010-05-19 14:40:24,,,,,男性,NOP,
10060,kamakiri,職コロヤ,会員,kizakisilver@yahoo.co.jp,09067882604,2010-05-02 13:27:00,2010-05-05 11:20:33,,,,,男性,NOP,
10031,kumo,職コロ,会員,kizakisilver@yahoo.co.jp,09067882604,2010-04-29 18:47:00,2010-04-29 22:44:04,,,,,男性,NOP,
10030,234,adj,会員,kizakisilver@yahoo.co.jp,1234567890,2010-04-29 18:46:00,2010-05-28 14:39:41,,,,,男性,NOP,〒761-0012 木田郡三木町平木100 マンション木田　505
10026,OKB,OKB,会員,okabe@atmedia.jp,02356785600,2010-04-20 17:24:00,2010-09-09 15:47:39,,,,,男性,NOP,〒120-2233 fgdsfsdfsdfsdfsdfsd fdsfsdf
10025,mobiletest,モバイル,会員,,,0000-00-00 00:00:00,2010-09-24 16:43:19,13994,,,,男性,NOP,〒123-3333 市区町村番地 建物名
10002,shoji,/あいうえおかきくけこ,会員,kizakisilver@yahoo.co.jp,,2010-04-15 00:31:00,2010-09-24 15:49:31,515780,,,12,男性,NOP,〒111-1111 大崎氏zsdadzxc ボロヤア
10001,aaaaaa,たなか,会員,__nakahara@ark-com.jp,09070939364,2010-04-14 23:42:00,2010-09-15 15:10:14,18150,,,NRO2xAe,男性,NOP,〒150-0002 目黒区下目黒 1-1-1
