SCI20100623170401KS724088,20100623170401,KYKTH0002704,GDSTH123,2009101400076881,0,5,1,5,0-5-10002-570-000
SCI20100623173524KS726256,20100623173524,KYKTH0002704,GDSTH123,2009101400076881,0,5,1,5,0-5-10002-571-000
SCI20100623182631KS730280,20100623182631,KYKTH0002704,GDSTH123,2009101400076881,0,5,1,5,0-5-10002-572-000
SCI20100623183340KS730884,20100623183340,KYKTH0002704,GDSTH123,2009101400076881,0,5,1,5,0-5-10002-573-000
SCI20100623184131KS731549,20100623184131,KYKTH0002704,GDSTH123,2009101400076881,0,5,1,5,0-5-10002-574-000
SCI20100623190851KS733786,20100623190851,KYKTH0002704,GDSTH123,2009101400076881,0,5,1,5,0-5-10002-578-000
SCI20100623191417KS734240,20100623191417,KYKTH0002704,GDSTH123,2009101400076881,0,5,1,5,0-5-10002-579-000
SCI20100623192114KS734797,20100623192114,KYKTH0002704,GDSTH123,2009101400076881,0,5,1,5,0-5-10002-580-000
SCI20100623192241KS734931,20100623192241,KYKTH0002704,GDSTH123,2009101400076881,0,5,1,5,0-5-10002-581-000
SCI20100623195607KS737967,20100623195607,KYKTH0002704,GDSTH123,2009101400076881,0,5,1,5,0-5-10002-583-000
SCI20100623201929KS740057,20100623201929,KYKTH0002704,GDSTH123,9010052000009651,0,1950,1,1950,0-1950-10002-585-000
SCI20100623202127KS740241,20100623202127,KYKTH0002704,GDSTH123,9010052000009651,0,9980,1,9980,0-9980-10002-586-000
SCI20100623202414KS740476,20100623202414,KYKTH0002704,GDSTH123,9010052000009651,0,5,1,5,0-5-10002-587-000
SCI20100623203541KS741514,20100623203541,KYKTH0002704,GDSTH123,9010052000009651,0,975,1,975,0-975-10002-589-000
SCI20100623204308KS742174,20100623204308,KYKTH0002704,GDSTH123,9010052000009651,0,975,1,975,0-975-10002-590-000
SCI20100623204435KS742305,20100623204435,KYKTH0002704,GDSTH123,9010052000009651,0,1950,1,1950,0-1950-10002-591-000
SCI20100624105729KS775837,20100624105729,KYKTH0002704,GDSTH123,9010052000009651,0,1000,1,1000,0-1000-10002-597-000
SCI20100624110053KS775923,20100624110053,KYKTH0002704,GDSTH123,9010052000009651,0,999,1,999,0-999-10002-598-000
SCI20100624110224KS775973,20100624110224,KYKTH0002704,GDSTH123,9010052000009651,0,975,1,975,0-975-10002-599-000
SCI20100624110534KS776072,20100624110534,KYKTH0002704,GDSTH123,9010052000009651,0,5,1,5,0-5-10002-600-000
SCI20100624112440KS776688,20100624112440,KYKTH0002704,GDSTH123,2009101400076881,0,5,1,5,0-5-10002-603-000
SCI20100624114933KS777645,20100624114933,KYKTH0002704,GDSTH123,9010052000009651,0,5,1,5,0-5-10002-604-000
SCI20100624120125KS778098,20100624120125,KYKTH0002704,GDSTH123,9010052000009651,0,5,1,5,0-5-10002-605-000
SCI20100624120642KS778272,20100624120642,KYKTH0002704,GDSTH123,9010052000009651,0,5,1,5,0-5-10002-607-000
SCI20100624121837KS778756,20100624121837,KYKTH0002704,GDSTH123,9010052000009651,0,975,1,975,0-975-10002-608-000
SCI20100624122043KS778856,20100624122043,KYKTH0002704,GDSTH123,9010052000009651,0,5,1,5,0-5-10002-609-000
SCI20100624122531KS779055,20100624122531,KYKTH0002704,GDSTH123,9010052000009651,0,1950,1,1950,0-1950-10002-610-000
SCI20100624123143KS779336,20100624123143,KYKTH0002704,GDSTH123,9010052000009651,0,5,1,5,0-5-10002-613-000
SCI20100624131100KS781005,20100624131100,KYKTH0002704,GDSTH123,9010052000009651,0,5,1,5,0-5-10002-616-000
SCI20100624140618KS783443,20100624140618,KYKTH0002704,GDSTH123,9010052000009651,0,5,1,5,0-5-10002-621-000
SCI20100624144920KS785463,20100624144920,KYKTH0002704,GDSTH123,9010052000009651,0,5,1,5,0-5-10002-640-000
SCI20100624145237KS785638,20100624145237,KYKTH0002704,GDSTH123,9010052000009651,0,5,1,5,0-5-10002-641-000
SCI20100624145900KS785969,20100624145900,KYKTH0002704,GDSTH123,9010052000009651,0,5,1,5,0-5-10002-644-000
SCI20100624150037KS786071,20100624150037,KYKTH0002704,GDSTH123234,9010052000009651,0,5,1,5,0-5-10002-645-000
SCI20100624151028KS786824,20100624151028,KYKTH0002704,GDSTH123234,9010052000009651,0,975,1,975,0-975-10002-648-000
SCI20100624153435KS788458,20100624153435,KYKTH0002704,GDSTH1862024813,9010052000009651,0,5,1,5,0-5-10002-655-000
SCI20100624154657KS789295,20100624154657,KYKTH0002704,GDSTH975743043,9010052000009651,0,5,1,5,0-5-10002-656-000
SCI20100624154850KS789425,20100624154850,KYKTH0002704,GDSTH1271507938,9010052000009651,0,4980,1,4980,0-4980-10002-657-000
SCI20100624154932KS789480,20100624154932,KYKTH0002704,GDSTH407475962,9010052000009651,0,99800,1,99800,0-99800-10002-660-000
SCI20100624155115KS789597,20100624155115,KYKTH0002704,GDSTH120302570,9010052000009651,0,725,1,725,1-725-10002-662-31
SCI20100624155959KS790222,20100624155959,KYKTH0002704,GDSTH947801311,9010052000009651,0,9980,1,9980,0-9980-10002-664-000
SCI20100624160643KS790691,20100624160643,KYKTH0002704,GDSTH1369207294,9010052000009651,0,9980,1,9980,0-9980-10002-666-000
SCI20100624161044KS790997,20100624161044,KYKTH0002704,GDSTH327457446,9010052000009651,0,9980,1,9980,0-9980-10002-667-000
SCI20100624161312KS791184,20100624161313,KYKTH0002704,GDSTH313228161,9010052000009651,0,9980,1,9980,0-9980-10002-670-000
SCI20100624161832KS791543,20100624161832,KYKTH0002704,GDSTH395139142,9010052000009651,0,9980,1,9980,0-9980-10002-672-000
SCI20100624162007KS791634,20100624162007,KYKTH0002704,GDSTH1719998943,9010052000009651,0,9980,1,9980,0-9980-10002-673-000
SCI20100624162803KS792237,20100624162803,KYKTH0002704,GDSTH1463419917,9010052000009651,0,9980,1,9980,0-9980-10002-677-000
SCI20100624162916KS792319,20100624162916,KYKTH0002704,GDSTH1028652419,9010052000009651,0,9980,1,9980,0-9980-10002-678-000
SCI20100624163049KS792417,20100624163049,KYKTH0002704,GDSTH456270750,9010052000009651,0,49800,1,49800,0-49800-10002-679-000
SCI20100624163131KS792456,20100624163131,KYKTH0002704,GDSTH1841655719,9010052000009651,0,1950,1,1950,0-1950-10002-680-000
SCI20100624163719KS792855,20100624163719,KYKTH0002704,GDSTH1412198916,9010052000009651,0,725,1,725,1-725-10002-681-31
SCI20100624163834KS792937,20100624163834,KYKTH0002704,GDSTH1964211269,9010052000009651,0,725,1,725,1-725-10002-682-31
SCI20100624171202KS795363,20100624171202,KYKTH0002704,GDSTH658434809,9010052000009651,0,1950,1,1950,0-1950-10331-688-000
SCI20100624171231KS795402,20100624171231,KYKTH0002704,GDSTH1188338609,9010052000009651,0,975,1,975,0-975-10331-689-000
SCI20100625202655KS899708,20100625202655,KYKTH0002704,GDSTH1461066447,9010052000009651,0,9980,1,9980,0-9980-10002-708-000
SCI20100705090933KS727386,20100705090933,KYKTH0002704,GDSTH930735116,2010053100011906,0,975,1,975,0-975-10899-1009-000
SCI20100706123931KS794912,20100706123931,KYKTH0002704,GDSTH1433275098,2010042495471838,0,1950,1,1950,0-1950-10947-1061-000
SCI20100707193417KS879668,20100707193417,KYKTH0002704,GDSTH740452389,2010042495471838,0,1950,1,1950,0-1950-10947-1162-000
SCI20100709181631KS998458,20100709181631,KYKTH0002704,GDSTH834115807,2010042495471838,0,4980,1,4980,0-4980-10947-1323-000
SCI20100710145715KS159142,20100710145715,KYKTH0002704,GDSTH429418924,2010062895910623,0,975,1,975,0-975-11324-1438-000
SCI20100712214453KS307364,20100712214453,KYKTH0002704,GDSTH152910524,2010051900462052,0,4980,1,4980,0-4980-11511-1720-000
SCI20100713001442KS317008,20100713001442,KYKTH0002704,GDSTH1052214026,2008091991773666,0,4980,1,4980,0-4980-11613-1755-000
SCI20100713113442KS332014,20100713113442,KYKTH0002704,GDSTH188406268,2009103194376236,0,4980,1,4980,0-4980-11553-1793-000
SCI20100713213319KS368284,20100713213319,KYKTH0002704,GDSTH283365766,2010042495471838,0,1950,1,1950,0-1950-10947-1876-000
SCI20100714105030KS395482,20100714105030,KYKTH0002704,GDSTH1687572110,9010052000009651,0,1950,1,1950,0-1950-10002-1963-000
SCI20100714105224KS395541,20100714105224,KYKTH0002704,GDSTH610574048,9010052000009651,0,725,1,725,1-725-10002-1964-31
SCI20100714105256KS395557,20100714105256,KYKTH0002704,GDSTH691277448,9010052000009651,0,9980,1,9980,0-9980-10002-1965-000
SCI20100714200550KS426774,20100714200550,KYKTH0002704,GDSTH1462039629,2010071496026236,0,975,1,975,0-975-11816-3337-000
SCI20100714210833KS432357,20100714210833,KYKTH0002704,GDSTH2017799288,2010071496026236,0,975,1,975,0-975-11827-3357-000
SCI20100714211118KS432588,20100714211118,KYKTH0002704,GDSTH1856872013,2010071496026236,0,975,1,975,0-975-11824-3359-000
SCI20100714213510KS434751,20100714213510,KYKTH0002704,GDSTH955999903,2010071470585617,0,9980,1,9980,0-9980-11838-3365-000
SCI20100714213903KS435101,20100714213903,KYKTH0002704,GDSTH331030455,2010071496026236,0,975,1,975,0-975-11846-3369-000
SCI20100714223205KS439463,20100714223205,KYKTH0002704,GDSTH1089023296,2010062900067883,0,4980,1,4980,0-4980-11809-3384-000
SCI20100715114732KS465006,20100715114732,KYKTH0002704,GDSTH1070063658,2010071496026236,0,975,1,975,0-975-11841-3466-000
SCI20100715222335KS509370,20100715222335,KYKTH0002704,GDSTH1313021527,2010062900001844,0,975,1,975,0-975-11994-3550-000
SCI20100715225214KS511891,20100715225214,KYKTH0002704,GDSTH136307660,2010062900001844,0,975,1,975,0-975-11998-3557-000
SCI20100715234906KS516635,20100715234906,KYKTH0002704,GDSTH772443631,2010051900061351,0,975,1,975,0-975-12005-3566-000
SCI20100716133541KS543193,20100716133541,KYKTH0002704,GDSTH1112308690,2010060200100589,0,975,1,975,0-975-12041-3648-000
SCI20100716234347KS587241,20100716234347,KYKTH0002704,GDSTH286528854,2010051900462052,0,4980,1,4980,0-4980-11511-3678-000
SCI20100717123333KS615193,20100717123333,KYKTH0002704,GDSTH657431827,2010060200100589,0,975,1,975,0-975-12080-3714-000
SCI20100717124914KS616040,20100717124914,KYKTH0002704,GDSTH1577005080,2010071796043602,0,975,1,975,0-975-12037-3717-000
SCI20100717153950KS625444,20100717153950,KYKTH0002704,GDSTH282139810,2010060200100971,0,975,1,975,0-975-12090-3732-000
SCI20100717154512KS625717,20100717154512,KYKTH0002704,GDSTH808845761,2010071796047255,0,1950,1,1950,0-1950-11732-3734-000
SCI20100717164745KS629342,20100717164745,KYKTH0002704,GDSTH2046924264,2010060100020969,0,1950,1,1950,0-1950-12086-3743-000
SCI20100717213033KS648543,20100717213033,KYKTH0002704,GDSTH1361760686,2010060100020968,0,1950,1,1950,0-1950-12086-3766-000
SCI20100718213837KS712339,20100718213837,KYKTH0002704,GDSTH588757667,2010071870590443,0,4980,1,4980,0-4980-11979-3870-000
SCI20100718214059KS712485,20100718214059,KYKTH0002704,GDSTH1314056421,2010060100070024,0,4980,1,4980,0-4980-12086-3872-000
SCI20100719201647KS768032,20100719201647,KYKTH0002704,GDSTH477895240,2009110894424397,0,975,1,975,0-975-12127-4126-000
SCI20100719203359KS769221,20100719203359,KYKTH0002704,GDSTH781312013,2009110894424397,0,975,1,975,0-975-12127-4127-000
SCI20100720005317KS784453,20100720005317,KYKTH0002704,GDSTH1239386129,2010071496026236,0,975,1,975,0-975-11936-4174-000
SCI20100721022201KS849078,20100721022201,KYKTH0002704,GDSTH1896019163,2010071996061340,0,975,1,975,0-975-12540-4302-000
SCI20100721222001KS904327,20100721222001,KYKTH0002704,GDSTH1417385756,2009110894424397,0,975,1,975,0-975-12127-4434-000
SCI20100721225242KS906988,20100721225242,KYKTH0002704,GDSTH161275880,2010062900079380,0,4980,1,4980,0-4980-12454-4437-000
SCI20100722065531KS922461,20100722065531,KYKTH0002704,GDSTH1508260837,2010070900001911,0,975,1,975,0-975-12566-4469-000
SCI20100722172255KS946746,20100722172255,KYKTH0002704,GDSTH104254455,2010070900001911,0,975,1,975,0-975-12566-4526-000
SCI20100723013324KS982473,20100723013324,KYKTH0002704,GDSTH737247161,2010072396084923,0,4980,1,4980,0-4980-12542-4643-000
SCI20100723044857KS986818,20100723044857,KYKTH0002704,GDSTH2128553889,2010060100162974,0,4980,1,4980,0-4980-12566-4658-000
SCI20100723090512KS991862,20100723090512,KYKTH0002704,GDSTH1910236989,2010060495748110,0,3330,1,3330,1-3330-12677-4689-3365
SCI20100723090652KS991911,20100723090652,KYKTH0002704,GDSTH823167339,2010060495748110,0,4980,1,4980,0-4980-12677-4691-000
SCI20100723205315KS139319,20100723205315,KYKTH0002704,GDSTH2017298441,2010060495748110,0,4980,1,4980,0-4980-12677-4762-000
SCI20100723221611KS148616,20100723221611,KYKTH0002704,GDSTH1615543193,2010060100109711,0,1950,1,1950,0-1950-12726-4776-000
SCI20100723223251KS150337,20100723223251,KYKTH0002704,GDSTH1288985537,2010060100165139,0,4980,1,4980,0-4980-12566-4781-000
SCI20100723224946KS152036,20100723224946,KYKTH0002704,GDSTH1763050506,2010060100165878,0,4980,1,4980,0-4980-12903-4784-000
SCI20100724082928KS176976,20100724082928,KYKTH0002704,GDSTH839317031,2010060495748110,0,4980,1,4980,0-4980-12677-4837-000
SCI20100724083002KS176993,20100724083002,KYKTH0002704,GDSTH1760798616,2010060495748110,0,4980,1,4980,0-4980-12677-4838-000
SCI20100724095031KS180223,20100724095031,KYKTH0002704,GDSTH644332808,2010072470597019,0,4980,1,4980,0-4980-12743-4853-000
SCI20100724102948KS181948,20100724102948,KYKTH0002704,GDSTH1036804033,2010062900022379,0,975,1,975,0-975-12960-4862-000
SCI20100724141812KS195122,20100724141812,KYKTH0002704,GDSTH1062013210,2010072470597349,0,4980,1,4980,0-4980-12987-4902-000
SCI20100724183220KS212154,20100724183220,KYKTH0002704,GDSTH917061380,2010060495748110,0,975,1,975,0-975-12677-4936-000
SCI20100725130406KS265560,20100725130406,KYKTH0002704,GDSTH1028631434,2010062900085180,0,4980,1,4980,0-4980-12987-5172-000
SCI20100725181013KS283688,20100725181013,KYKTH0002704,GDSTH1725072236,2010071500000068,0,975,1,975,0-975-12566-5219-000
SCI20100725181133KS283779,20100725181134,KYKTH0002704,GDSTH1330244346,2010071500000068,0,975,1,975,0-975-12566-5221-000
SCI20100725185845KS286917,20100725185845,KYKTH0002704,GDSTH89799784,2010051900452275,0,4980,1,4980,0-4980-12454-5233-000
SCI20100725201925KS292421,20100725201925,KYKTH0002704,GDSTH1241100337,2009110894424397,0,975,1,975,0-975-12127-5247-000
SCI20100725210755KS295914,20100725210755,KYKTH0002704,GDSTH1304851535,2007032280002186,0,4980,1,4980,0-4980-13300-5254-000
SCI20100725214723KS298757,20100725214723,KYKTH0002704,GDSTH1988514352,2009110894424397,0,975,1,975,0-975-12127-5262-000
SCI20100725220158KS299776,20100725220158,KYKTH0002704,GDSTH698759415,2007032280002186,0,4980,1,4980,0-4980-13300-5264-000
SCI20100725222905KS301565,20100725222905,KYKTH0002704,GDSTH2084056780,2010042495471838,0,1950,1,1950,0-1950-10947-5276-000
SCI20100725230037KS303660,20100725230037,KYKTH0002704,GDSTH132511541,2009110894424397,0,975,1,975,0-975-12127-5279-000
SCI20100725234841KS306739,20100725234841,KYKTH0002704,GDSTH1962575546,2009110894424397,0,975,1,975,0-975-12127-5293-000
SCI20100726005500KS310163,20100726005500,KYKTH0002704,GDSTH1259260944,2009110894424397,0,975,1,975,0-975-12127-5327-000
SCI20100726014640KS312014,20100726014640,KYKTH0002704,GDSTH1937431551,2010072670599559,0,4980,1,4980,0-4980-12987-5358-000
SCI20100726111921KS324811,20100726111921,KYKTH0002704,GDSTH2060719750,2010072096067525,0,4980,1,4980,0-4980-13482-5453-000
SCI20100726172848KS343233,20100726172848,KYKTH0002704,GDSTH835935029,2010063000237519,0,4980,1,4980,0-4980-13465-5503-000
SCI20100726181509KS346630,20100726181509,KYKTH0002704,GDSTH814499269,2010070500076309,0,1950,1,1950,0-1950-13229-5508-000
SCI20100726181925KS346917,20100726181925,KYKTH0002704,GDSTH1251185839,2010070500076312,0,1950,1,1950,0-1950-13229-5509-000
SCI20100726230227KS371386,20100726230227,KYKTH0002704,GDSTH499733142,2010063000097229,0,975,1,975,0-975-13493-5586-000
SCI20100727011138KS379371,20100727011138,KYKTH0002704,GDSTH1300086394,2005112190000077,0,4980,1,4980,0-4980-13474-5629-000
SCI20100727011306KS379437,20100727011306,KYKTH0002704,GDSTH1998851172,2005112190000077,0,4980,1,4980,0-4980-13474-5631-000
SCI20100727045352KS384613,20100727045352,KYKTH0002704,GDSTH2102243137,2010070900061481,0,3195,1,3195,1-3195-13488-5679-3397
SCI20100727110312KS392832,20100727110312,KYKTH0002704,GDSTH1786719291,2010062900029749,0,4980,1,4980,0-4980-13488-5716-000
SCI20100727115532KS394808,20100727115532,KYKTH0002704,GDSTH440018409,2010060200175500,0,4980,1,4980,0-4980-12922-5733-000
SCI20100727162058KS407893,20100727162058,KYKTH0002704,GDSTH1776649929,2009110694414782,0,975,1,975,0-975-13678-5782-000
SCI20100727194704KS423879,20100727194704,KYKTH0002704,GDSTH1204762433,2010060495748110,0,975,1,975,0-975-13776-5812-000
SCI20100727200959KS425926,20100727200959,KYKTH0002704,GDSTH246834166,2010060495748110,0,975,1,975,0-975-13783-5820-000
SCI20100727224344KS440121,20100727224344,KYKTH0002704,GDSTH1463194704,2009110694414782,0,975,1,975,0-975-13823-5865-000
SCI20100727232712KS443796,20100727232712,KYKTH0002704,GDSTH1474374015,2010051900020909,0,975,1,975,0-975-13719-5872-000
SCI20100728182547KS490914,20100728182547,KYKTH0002704,GDSTH2060688834,2009110894424397,0,975,1,975,0-975-12127-6053-000
SCI20100728214933KS509908,20100728214933,KYKTH0002704,GDSTH121530714,2010051900427841,0,4980,1,4980,0-4980-11511-6104-000
SCI20100730073104KS605270,20100730073104,KYKTH0002704,GDSTH1691861470,2010060495748110,0,975,1,975,0-975-14428-6556-000
SCI20100730073414KS605345,20100730073414,KYKTH0002704,GDSTH645804146,2010060495748110,0,975,1,975,0-975-14427-6559-000
SCI20100730093656KS608939,20100730093656,KYKTH0002704,GDSTH679669585,2010063000176281,0,975,1,975,0-975-12726-6611-000
SCI20100730104236KS611592,20100730104236,KYKTH0002704,GDSTH321681240,2010063000176281,0,1950,1,1950,0-1950-12726-6624-000
SCI20100730111032KS612736,20100730111032,KYKTH0002704,GDSTH952391185,2010070900092421,0,4980,1,4980,0-4980-13488-6642-000
SCI20100730111143KS612783,20100730111143,KYKTH0002704,GDSTH482858602,2010070900092421,0,4980,1,4980,0-4980-13488-6645-000
SCI20100730111252KS612825,20100730111252,KYKTH0002704,GDSTH719229896,2010070900092420,0,4980,1,4980,0-4980-13488-6646-000
SCI20100730111348KS612867,20100730111348,KYKTH0002704,GDSTH1958358551,2010070900092420,0,4980,1,4980,0-4980-13488-6648-000
SCI20100730111451KS612910,20100730111451,KYKTH0002704,GDSTH984669013,2010070900092419,0,4980,1,4980,0-4980-13488-6649-000
SCI20100730111555KS612954,20100730111555,KYKTH0002704,GDSTH44270999,2010070900092419,0,4980,1,4980,0-4980-13488-6650-000
SCI20100730115605KS614846,20100730115605,KYKTH0002704,GDSTH2023023316,2010073070605421,0,1950,1,1950,0-1950-14483-6673-000
SCI20100730150046KS625090,20100730150046,KYKTH0002704,GDSTH262219293,2010073070605642,0,1950,1,1950,0-1950-14483-6744-000
SCI20100730150821KS625561,20100730150821,KYKTH0002704,GDSTH159397114,2010062900029749,0,1218,1,1218,1-1218-13488-6765-3263
SCI20100730210139KS654031,20100730210139,KYKTH0002704,GDSTH1557533186,2010051900197290,0,1950,1,1950,0-1950-14346-6845-000
SCI20100730234743KS670594,20100730234743,KYKTH0002704,GDSTH1091437045,2010070900013112,0,1950,1,1950,0-1950-14365-6886-000
SCI20100731001901KS673215,20100731001901,KYKTH0002704,GDSTH1365406569,2010073196146717,0,975,1,975,0-975-14711-6897-000
SCI20100731013456KS678307,20100731013456,KYKTH0002704,GDSTH1987342050,2010073196146717,0,975,1,975,0-975-14711-6920-000
SCI20100731100705KS693790,20100731100705,KYKTH0002704,GDSTH1508538468,2010070900069671,0,4980,1,4980,0-4980-13488-6984-000
SCI20100731100847KS693858,20100731100847,KYKTH0002704,GDSTH1125193292,2010070900094698,0,4980,1,4980,0-4980-13488-6986-000
SCI20100731100933KS693899,20100731100933,KYKTH0002704,GDSTH1753254722,2010070900094698,0,4980,1,4980,0-4980-13488-6987-000
SCI20100731103452KS695260,20100731103452,KYKTH0002704,GDSTH1656757107,2010070500185024,0,4980,1,4980,0-4980-14693-6998-000
SCI20100731154540KS715080,20100731154540,KYKTH0002704,GDSTH2065350853,2010051900362270,0,4980,1,4980,0-4980-14779-7091-000
SCI20100731173239KS723070,20100731173239,KYKTH0002704,GDSTH1377393484,2010070500027308,0,975,1,975,0-975-13953-7125-000
SCI20100731233901KS759670,20100731233901,KYKTH0002704,GDSTH1215493432,2010070500083183,0,975,1,975,0-975-14955-7210-000
SCI20100731234302KS760066,20100731234302,KYKTH0002704,GDSTH327418616,2009110894424397,0,975,1,975,0-975-12127-7212-000
SCI20100801062024KS777355,20100801062024,KYKTH0002704,GDSTH358613624,2010070900017115,0,1950,1,1950,0-1950-15010-7271-000
SCI20100801103247KS787349,20100801103247,KYKTH0002704,GDSTH1788404199,2010070900017385,0,975,1,975,0-975-14953-7321-000
SCI20100801144928KS803103,20100801144928,KYKTH0002704,GDSTH1172792381,2010070900017385,0,975,1,975,0-975-14953-7374-000
SCI20100802011844KS846935,20100802011844,KYKTH0002704,GDSTH2023873573,2010051900427841,0,4980,1,4980,0-4980-11511-7554-000
SCI20100802014223KS847780,20100802014223,KYKTH0002704,GDSTH863437839,2010063000251363,0,4980,1,4980,0-4980-14957-7558-000
SCI20100802051706KS851628,20100802051706,KYKTH0002704,GDSTH1201444522,2010070900073318,0,4980,1,4980,0-4980-15010-7594-000
SCI20100802113822KS861444,20100802113822,KYKTH0002704,GDSTH2145280674,2010063000251773,0,4980,1,4980,0-4980-15046-7674-000
SCI20100802140347KS868263,20100802140347,KYKTH0002704,GDSTH893206072,2010070500231851,0,4980,1,4980,0-4980-14693-7725-000
SCI20100802140608KS868382,20100802140608,KYKTH0002704,GDSTH809492458,2010070500231851,0,4980,1,4980,0-4980-14693-7729-000
SCI20100802152237KS872014,20100802152237,KYKTH0002704,GDSTH712847803,2010063000121818,0,1950,1,1950,0-1950-15321-7748-000
SCI20100803005451KS911830,20100803005451,KYKTH0002704,GDSTH1746417091,2010060495748110,0,975,1,975,0-975-15585-7946-000
SCI20100803010444KS912272,20100803010444,KYKTH0002704,GDSTH1908736816,2010060495748110,0,975,1,975,0-975-15586-7951-000
SCI20100803011310KS912611,20100803011310,KYKTH0002704,GDSTH627115294,2010060495748110,0,975,1,975,0-975-15588-7957-000
SCI20100803011902KS912848,20100803011902,KYKTH0002704,GDSTH1384492518,2010060495748110,0,975,1,975,0-975-15589-7961-000
SCI20100803012439KS913067,20100803012439,KYKTH0002704,GDSTH2074528902,2010060495748110,0,975,1,975,0-975-15593-7966-000
SCI20100803080747KS920428,20100803080747,KYKTH0002704,GDSTH1533166765,2010070500083183,0,975,1,975,0-975-15637-8019-000
SCI20100803113845KS926530,20100803113845,KYKTH0002704,GDSTH1846497710,2010070500089941,0,1950,1,1950,0-1950-14686-8095-000
SCI20100803135102KS932045,20100803135102,KYKTH0002704,GDSTH1346216210,2010070500189842,0,4980,1,4980,0-4980-15666-8130-000
SCI20100803160215KS938552,20100803160215,KYKTH0002704,GDSTH69322658,2010063000254044,0,4980,1,4980,0-4980-14779-8178-000
SCI20100803163338KS940198,20100803163338,KYKTH0002704,GDSTH985017073,2010060100032728,0,975,1,975,0-975-15765-8193-000
SCI20100803181704KS946645,20100803181704,KYKTH0002704,GDSTH96943641,2010080396178036,0,4980,1,4980,0-4980-15779-8272-000
SCI20100803184120KS948409,20100803184120,KYKTH0002704,GDSTH92975087,2010072596107665,0,975,1,975,0-975-15806-8281-000
SCI20100803220055KS964628,20100803220055,KYKTH0002704,GDSTH1859584236,2010080396179577,0,975,1,975,0-975-15856-8325-000
SCI20100803222223KS966544,20100803222223,KYKTH0002704,GDSTH1692755686,2010072700672301,0,4980,1,4980,0-4980-11511-8330-000
SCI20100803222713KS966954,20100803222713,KYKTH0002704,GDSTH1019696609,2010080370613312,0,975,1,975,0-975-15451-8331-000
SCI20100804034622KS981924,20100804034623,KYKTH0002704,GDSTH1060862395,2010080396178036,0,4980,1,4980,0-4980-15779-8409-000
SCI20100804052322KS983173,20100804052322,KYKTH0002704,GDSTH917965334,2010080396178036,0,4980,1,4980,0-4980-15779-8417-000
SCI20100804054006KS983390,20100804054006,KYKTH0002704,GDSTH1909775150,2010080396178036,0,4980,1,4980,0-4980-15779-8423-000
SCI20100804065537KS984625,20100804065537,KYKTH0002704,GDSTH80648052,2010080396178036,0,4980,1,4980,0-4980-15779-8428-000
SCI20100804104434KS990647,20100804104434,KYKTH0002704,GDSTH1255714639,2010060100032728,0,975,1,975,0-975-15953-8462-000
SCI20100804140709KS998485,20100804140709,KYKTH0002704,GDSTH2110067648,2010070900102273,0,4980,1,4980,0-4980-14235-8533-000
SCI20100804174210KS110217,20100804174210,KYKTH0002704,GDSTH566820266,2004120490001224,0,975,1,975,0-975-16078-8600-000
SCI20100804174742KS110556,20100804174742,KYKTH0002704,GDSTH1111357068,2009022592914833,0,975,1,975,0-975-15954-8603-000
SCI20100804175504KS111049,20100804175504,KYKTH0002704,GDSTH510656291,2004120490001224,0,4980,1,4980,0-4980-16078-8611-000
SCI20100804193541KS118625,20100804193541,KYKTH0002704,GDSTH2100523037,2010062900022379,0,975,1,975,0-975-16118-8649-000
SCI20100804214319KS129398,20100804214319,KYKTH0002704,GDSTH1668886267,2010080296166715,0,975,1,975,0-975-15919-8712-000
SCI20100804214721KS129750,20100804214721,KYKTH0002704,GDSTH1239128192,2010070900102273,0,4980,1,4980,0-4980-14235-8713-000
SCI20100805024224KS146723,20100805024224,KYKTH0002704,GDSTH885563110,2004120490001224,0,4980,1,4980,0-4980-16078-8833-000
SCI20100805024311KS146735,20100805024311,KYKTH0002704,GDSTH337800974,2004120490001224,0,4980,1,4980,0-4980-16078-8834-000
SCI20100805084248KS152953,20100805084248,KYKTH0002704,GDSTH2090164554,2004120490001224,0,4980,1,4980,0-4980-16078-8889-000
SCI20100805093713KS154454,20100805093713,KYKTH0002704,GDSTH972568409,2004120490001224,0,4980,1,4980,0-4980-16078-8912-000
SCI20100805095100KS154867,20100805095100,KYKTH0002704,GDSTH1601403535,2004120490001224,0,4980,1,4980,0-4980-16078-8921-000
SCI20100805095134KS154886,20100805095134,KYKTH0002704,GDSTH752953923,2004120490001224,0,4980,1,4980,0-4980-16078-8922-000
SCI20100805113059KS158275,20100805113059,KYKTH0002704,GDSTH1223676245,2004120490001224,0,4980,1,4980,0-4980-16078-8962-000
SCI20100805113144KS158300,20100805113144,KYKTH0002704,GDSTH322875742,2004120490001224,0,4980,1,4980,0-4980-16078-8963-000
SCI20100805132704KS162951,20100805132704,KYKTH0002704,GDSTH914437572,2010072596107665,0,975,1,975,0-975-16099-9024-000
SCI20100805133054KS163124,20100805133054,KYKTH0002704,GDSTH1571343429,2010072596107665,0,4980,1,4980,0-4980-15802-9030-000
SCI20100805142632KS165752,20100805142632,KYKTH0002704,GDSTH199492765,2010070900042956,0,1950,1,1950,0-1950-16427-9052-000
SCI20100805162242KS171267,20100805162242,KYKTH0002704,GDSTH883513899,2010070900078860,0,4980,1,4980,0-4980-15141-9105-000
SCI20100805162736KS171543,20100805162736,KYKTH0002704,GDSTH1373441384,2009121894664976,0,4980,1,4980,0-4980-16282-9113-000
SCI20100805170931KS173787,20100805170931,KYKTH0002704,GDSTH391058204,2009121894664976,0,4980,1,4980,0-4980-16282-9129-000
SCI20100805175603KS176681,20100805175603,KYKTH0002704,GDSTH1499157866,2010051900205324,0,1950,1,1950,0-1950-12726-9150-000
SCI20100805185551KS181015,20100805185551,KYKTH0002704,GDSTH529635298,2010070900028976,0,1950,1,1950,0-1950-16516-9166-000
SCI20100805202714KS188229,20100805202714,KYKTH0002704,GDSTH2067749480,2010063000257391,0,4980,1,4980,0-4980-15321-9194-000
SCI20100805212847KS193800,20100805212847,KYKTH0002704,GDSTH1691952732,2010070500235932,0,4980,1,4980,0-4980-14693-9220-000
SCI20100805213031KS193970,20100805213031,KYKTH0002704,GDSTH432570676,2010070500235932,0,4980,1,4980,0-4980-14693-9227-000
SCI20100805215856KS196341,20100805215856,KYKTH0002704,GDSTH1726489824,2010070900029081,0,975,1,975,0-975-14953-9240-000
SCI20100805222641KS198646,20100805222641,KYKTH0002704,GDSTH1284048633,2010072596107665,0,975,1,975,0-975-16581-9260-000
SCI20100805232937KS203484,20100805232937,KYKTH0002704,GDSTH90542491,2010070500090420,0,975,1,975,0-975-16504-9302-000
SCI20100806005324KS208495,20100806005324,KYKTH0002704,GDSTH604448329,2010080496181109,0,4980,1,4980,0-4980-15902-9373-000
SCI20100806021738KS211722,20100806021738,KYKTH0002704,GDSTH1184043508,2009022692920063,0,4980,1,4980,0-4980-15414-9442-000
SCI20100806075937KS217670,20100806075937,KYKTH0002704,GDSTH161144521,2009022692920063,0,4980,1,4980,0-4980-15414-9498-000
SCI20100806083129KS218356,20100806083129,KYKTH0002704,GDSTH1362506497,2010070500093840,0,975,1,975,0-975-16748-9503-000
SCI20100806090532KS219261,20100806090532,KYKTH0002704,GDSTH468600907,2009022592914833,0,1950,1,1950,0-1950-15954-9508-000
SCI20100806211247KS257690,20100806211247,KYKTH0002704,GDSTH1265804408,2009022692920063,0,4980,1,4980,0-4980-15414-9776-000
SCI20100807071828KS283418,20100807071828,KYKTH0002704,GDSTH76318596,2010063000316606,0,4980,1,4980,0-4980-17131-9945-000
SCI20100807122842KS295002,20100807122842,KYKTH0002704,GDSTH534684117,2010080796205122,0,1950,1,1950,0-1950-17159-10039-000
SCI20100807132545KS297900,20100807132545,KYKTH0002704,GDSTH1950256270,2010080796205122,0,1950,1,1950,0-1950-17159-10058-000
SCI20100807135413KS299420,20100807135413,KYKTH0002704,GDSTH1489542319,2010063000261345,0,4980,1,4980,0-4980-17010-10069-000
SCI20100807143803KS301625,20100807143803,KYKTH0002704,GDSTH1998087626,2010080796205122,0,1950,1,1950,0-1950-17159-10084-000
SCI20100807145702KS302611,20100807145702,KYKTH0002704,GDSTH926187984,2010080796205122,0,975,1,975,0-975-17159-10100-000
SCI20100808010034KS339696,20100808010034,KYKTH0002704,GDSTH2025858327,2009022692920063,0,4980,1,4980,0-4980-15414-10323-000
SCI20100808050514KS346049,20100808050514,KYKTH0002704,GDSTH61435676,2010080896209979,0,1950,1,1950,0-1950-17461-10372-000
SCI20100808050704KS346080,20100808050704,KYKTH0002704,GDSTH1857635820,2009022692920063,0,4980,1,4980,0-4980-15605-10377-000
SCI20100808154739KS368219,20100808154739,KYKTH0002704,GDSTH1717823914,2010072700672301,0,4980,1,4980,0-4980-11511-10520-000
SCI20100808161626KS369688,20100808161626,KYKTH0002704,GDSTH174188205,2010080796207972,0,4980,1,4980,0-4980-17002-10530-000
SCI20100808162527KS370154,20100808162527,KYKTH0002704,GDSTH1711846278,2010080796207972,0,4980,1,4980,0-4980-17002-10538-000
SCI20100808171935KS372964,20100808171935,KYKTH0002704,GDSTH1971337336,2010080796207972,0,4980,1,4980,0-4980-17002-10561-000
SCI20100808172503KS373248,20100808172503,KYKTH0002704,GDSTH1347197444,2010080796207972,0,4980,1,4980,0-4980-17002-10565-000
SCI20100808175626KS374991,20100808175626,KYKTH0002704,GDSTH2082686613,2010072200070239,0,4980,1,4980,0-4980-16594-10574-000
SCI20100808190657KS379038,20100808190657,KYKTH0002704,GDSTH1263724536,2010011194818502,0,4980,1,4980,0-4980-16750-10595-000
SCI20100808191052KS379249,20100808191052,KYKTH0002704,GDSTH1943640728,2010080796207972,0,4980,1,4980,0-4980-17002-10601-000
SCI20100808191204KS379308,20100808191204,KYKTH0002704,GDSTH919031560,2010080796207972,0,4980,1,4980,0-4980-17002-10603-000
SCI20100808201405KS382996,20100808201405,KYKTH0002704,GDSTH566937600,2010011194818502,0,4980,1,4980,0-4980-16750-10617-000
SCI20100808203554KS384299,20100808203554,KYKTH0002704,GDSTH1928635528,2010072200039659,0,1950,1,1950,0-1950-16817-10626-000
SCI20100808203718KS384405,20100808203718,KYKTH0002704,GDSTH179907062,2010072200039659,0,975,1,975,0-975-16817-10628-000
SCI20100808220333KS390108,20100808220333,KYKTH0002704,GDSTH1570029811,2010072700477876,0,1950,1,1950,0-1950-17606-10682-000
SCI20100808220526KS390232,20100808220526,KYKTH0002704,GDSTH439887719,2010072700477876,0,975,1,975,0-975-17606-10686-000
SCI20100809001701KS397940,20100809001701,KYKTH0002704,GDSTH1019343454,2010072200070761,0,4980,1,4980,0-4980-16594-10726-000
SCI20100809063111KS405539,20100809063111,KYKTH0002704,GDSTH1893068983,2009022592914833,0,1950,1,1950,0-1950-15954-10804-000
SCI20100809064515KS405761,20100809064515,KYKTH0002704,GDSTH891470675,2010080970619220,0,1950,1,1950,0-1950-17764-10809-000
SCI20100809064559KS405775,20100809064559,KYKTH0002704,GDSTH750457131,2010072700680011,0,1950,1,1950,0-1950-17765-10814-000
SCI20100809064720KS405799,20100809064720,KYKTH0002704,GDSTH1530090108,2010080970619220,0,1950,1,1950,0-1950-17764-10817-000
SCI20100809144012KS421574,20100809144012,KYKTH0002704,GDSTH1067085183,2009041400036325,0,1950,1,1950,0-1950-17899-10982-000
SCI20100809153447KS424248,20100809153448,KYKTH0002704,GDSTH773511016,2009052793543839,0,975,1,975,0-975-17464-11001-000
SCI20100809163502KS427335,20100809163502,KYKTH0002704,GDSTH800116232,2010070500239643,0,4980,1,4980,0-4980-14693-11025-000
SCI20100809163637KS427420,20100809163637,KYKTH0002704,GDSTH1699593001,2010070500239643,0,4980,1,4980,0-4980-14693-11026-000
SCI20100809170522KS428894,20100809170522,KYKTH0002704,GDSTH885049045,2009121894664976,0,4980,1,4980,0-4980-16282-11036-000
SCI20100809173109KS430446,20100809173109,KYKTH0002704,GDSTH1784903784,2009112000015096,0,1950,1,1950,0-1950-17956-11053-000
SCI20100809200438KS440835,20100809200438,KYKTH0002704,GDSTH632049502,2010060495748110,0,975,1,975,0-975-17996-11099-000
SCI20100809200716KS441034,20100809200716,KYKTH0002704,GDSTH1279111879,2010072700606765,0,4980,1,4980,0-4980-17461-11101-000
SCI20100809201301KS441470,20100809201301,KYKTH0002704,GDSTH820273140,2009110894424397,0,975,1,975,0-975-12127-11106-000
SCI20100809214616KS448735,20100809214616,KYKTH0002704,GDSTH160574857,2010072700620850,0,4980,1,4980,0-4980-17002-11142-000
SCI20100809215132KS449109,20100809215132,KYKTH0002704,GDSTH1452315251,2010080796207972,0,4980,1,4980,0-4980-17002-11144-000
SCI20100809215403KS449291,20100809215403,KYKTH0002704,GDSTH1280131031,2009110894424397,0,4980,1,4980,0-4980-12127-11140-000
SCI20100809222657KS451679,20100809222657,KYKTH0002704,GDSTH1403999475,2010080796207972,0,4980,1,4980,0-4980-17002-11161-000
SCI20100809223402KS452196,20100809223402,KYKTH0002704,GDSTH1334171614,2009121894664976,0,4980,1,4980,0-4980-16282-11169-000
SCI20100809234306KS456842,20100809234306,KYKTH0002704,GDSTH133952796,2009110894424397,0,4980,1,4980,0-4980-12127-11208-000
SCI20100810010437KS461112,20100810010437,KYKTH0002704,GDSTH487751134,2010063000265815,0,4980,1,4980,0-4980-18121-11254-000
SCI20100810010754KS461264,20100810010754,KYKTH0002704,GDSTH1973360288,2010063000321393,0,4980,1,4980,0-4980-18118-11256-000
SCI20100810015541KS462985,20100810015541,KYKTH0002704,GDSTH1468958897,2009022692920063,0,4980,1,4980,0-4980-15414-11266-000
SCI20100810015604KS462999,20100810015604,KYKTH0002704,GDSTH1531302053,2009022692920063,0,4980,1,4980,0-4980-15414-11268-000
SCI20100810015624KS463010,20100810015624,KYKTH0002704,GDSTH156404817,2009022692920063,0,4980,1,4980,0-4980-15414-11269-000
SCI20100810015643KS463018,20100810015643,KYKTH0002704,GDSTH159372099,2009022692920063,0,4980,1,4980,0-4980-15414-11270-000
SCI20100810044451KS466000,20100810044451,KYKTH0002704,GDSTH1165628702,2009052793543839,0,975,1,975,0-975-17464-11296-000
SCI20100810115117KS476175,20100810115117,KYKTH0002704,GDSTH383945975,2008071191251756,0,4980,1,4980,0-4980-17461-11380-000
SCI20100810115606KS476376,20100810115606,KYKTH0002704,GDSTH454764893,2008071191251756,0,4980,1,4980,0-4980-17461-11384-000
SCI20100810164103KS491967,20100810164103,KYKTH0002704,GDSTH1365460646,2010081070620684,0,975,1,975,0-975-17739-11501-000
SCI20100810193826KS506445,20100810193827,KYKTH0002704,GDSTH1328550390,2010081096229588,0,29800,1,29800,0-29800-17905-11562-000
SCI20100810214238KS518053,20100810214238,KYKTH0002704,GDSTH524624586,2010070900029081,0,975,1,975,0-975-14953-11622-000
SCI20100810234025KS528325,20100810234025,KYKTH0002704,GDSTH1052875458,2001011700019212,0,975,1,975,0-975-15321-11671-000
SCI20100811000753KS530465,20100811000753,KYKTH0002704,GDSTH25169592,2010081096229588,0,29800,1,29800,0-29800-17905-11678-000
SCI20100811074946KS544489,20100811074947,KYKTH0002704,GDSTH1854750161,2009052793543839,0,9980,1,9980,0-9980-17464-11797-000
SCI20100811102330KS549927,20100811102330,KYKTH0002704,GDSTH772552087,2010072200041697,0,1950,1,1950,0-1950-17812-11838-000
SCI20100811114224KS553342,20100811114224,KYKTH0002704,GDSTH1023384954,2008071191251756,0,9980,1,9980,0-9980-17461-11887-000
SCI20100811114340KS553401,20100811114340,KYKTH0002704,GDSTH264941779,2008071191251756,0,9980,1,9980,0-9980-17461-11888-000
SCI20100811144629KS563399,20100811144629,KYKTH0002704,GDSTH1307752166,2010072596107665,0,9980,1,9980,0-9980-15802-11933-000
SCI20100812001510KS609649,20100812001510,KYKTH0002704,GDSTH724284090,2010081196233235,0,1950,1,1950,0-1950-18024-12078-000
SCI20100812010348KS612579,20100812010348,KYKTH0002704,GDSTH264323356,2010072700600035,0,9980,1,9980,0-9980-17711-12093-000
SCI20100812080856KS623586,20100812080856,KYKTH0002704,GDSTH2045043344,2010070500093840,0,975,1,975,0-975-18857-12145-000
SCI20100812092148KS625941,20100812092148,KYKTH0002704,GDSTH2067816036,2010072800006387,0,9980,1,9980,0-9980-18080-12153-000
SCI20100812103328KS628846,20100812103328,KYKTH0002704,GDSTH1626332574,2010060495748110,0,975,1,975,0-975-18884-12180-000
SCI20100812223114KS678423,20100812223114,KYKTH0002704,GDSTH587922012,2008071191251756,0,9980,1,9980,0-9980-17461-12380-000
SCI20100812223214KS678503,20100812223215,KYKTH0002704,GDSTH2104702929,2008071191251756,0,9980,1,9980,0-9980-17461-12381-000
SCI20100813132915KS717668,20100813132915,KYKTH0002704,GDSTH1232306035,2010011194818502,0,9980,1,9980,0-9980-16750-12542-000
SCI20100814041909KS779826,20100814041909,KYKTH0002704,GDSTH1272418662,2008071191251756,0,975,1,975,0-975-19355-12793-000
SCI20100814042253KS779905,20100814042253,KYKTH0002704,GDSTH810725926,2008071191251756,0,975,1,975,0-975-19359-12796-000
SCI20100814053347KS781288,20100814053347,KYKTH0002704,GDSTH1505756838,2008071191251756,0,9980,1,9980,0-9980-17461-12800-000
SCI20100814090555KS787081,20100814090555,KYKTH0002704,GDSTH309938951,2010051900443096,0,9980,1,9980,0-9980-11511-12823-000
SCI20100814110256KS792038,20100814110257,KYKTH0002704,GDSTH74732732,2010063000330775,0,9980,1,9980,0-9980-18545-12861-000
SCI20100814122817KS796504,20100814122817,KYKTH0002704,GDSTH15815594,2010072700590171,0,1950,1,1950,0-1950-12726-12885-000
SCI20100814151537KS806170,20100814151537,KYKTH0002704,GDSTH1330395270,2010072700634203,0,975,1,975,0-975-19484-12931-000
SCI20100814154418KS807907,20100814154418,KYKTH0002704,GDSTH193083803,2010072700634203,0,975,1,975,0-975-19484-12948-000
SCI20100814155647KS808643,20100814155647,KYKTH0002704,GDSTH248668972,2010072700634203,0,975,1,975,0-975-19484-12953-000
SCI20100814160732KS809293,20100814160732,KYKTH0002704,GDSTH1901615344,2010072700634203,0,1950,1,1950,0-1950-19484-12954-000
SCI20100814162645KS810565,20100814162645,KYKTH0002704,GDSTH886613906,2010072700634203,0,1950,1,1950,0-1950-19484-12959-000
SCI20100814235039KS841748,20100814235039,KYKTH0002704,GDSTH331498841,2010072700612413,0,9980,1,9980,0-9980-16995-13083-000
SCI20100815022422KS850001,20100815022422,KYKTH0002704,GDSTH247290535,2001011700019212,0,1950,1,1950,0-1950-15321-13140-000
SCI20100815022541KS850049,20100815022541,KYKTH0002704,GDSTH297262850,2001011700019212,0,975,1,975,0-975-15321-13142-000
SCI20100816012848KS917591,20100816012848,KYKTH0002704,GDSTH879921465,2010072700596937,0,4980,1,4980,0-4980-16995-13504-000
SCI20100816075831KS926010,20100816075831,KYKTH0002704,GDSTH1315868385,2008062091117667,0,975,1,975,0-975-20043-13563-000
SCI20100816173346KS956427,20100816173346,KYKTH0002704,GDSTH673089471,2010070500064935,0,975,1,975,0-975-20243-13808-000
SCI20100817005206KS990674,20100817005206,KYKTH0002704,GDSTH1095458291,2010072700590171,0,1950,1,1950,0-1950-12726-13963-000
SCI20100817111826KS108404,20100817111826,KYKTH0002704,GDSTH881342997,2010063000168329,0,975,1,975,0-975-20506-14094-000
SCI20100817150142KS120343,20100817150142,KYKTH0002704,GDSTH2132816730,2010081796282604,0,9980,1,9980,0-9980-20449-14161-000
SCI20100817173231KS130044,20100817173231,KYKTH0002704,GDSTH1407771890,2010081796286556,0,9980,1,9980,0-9980-20591-14213-000
SCI20100817200437KS141502,20100817200437,KYKTH0002704,GDSTH1950055616,2010072200087036,0,4980,1,4980,0-4980-20644-14266-000
SCI20100817203120KS143788,20100817203120,KYKTH0002704,GDSTH278684936,2010060495748110,0,4980,1,4980,0-4980-20651-14275-000
SCI20100817234054KS158453,20100817234055,KYKTH0002704,GDSTH225220993,2010081796286556,0,9980,1,9980,0-9980-20591-14341-000
SCI20100818020131KS165195,20100818020131,KYKTH0002704,GDSTH1034778651,2010072700590171,0,975,1,975,0-975-12726-14372-000
SCI20100818161245KS194426,20100818161245,KYKTH0002704,GDSTH187793326,2010011194818502,0,9980,1,9980,0-9980-16750-14553-000
SCI20100819105721KS253414,20100819105721,KYKTH0002704,GDSTH438888733,2010073000211032,0,9980,1,9980,0-9980-18545-14841-000
SCI20100819123845KS257996,20100819123845,KYKTH0002704,GDSTH79448782,2010072700231550,0,9980,1,9980,0-9980-21026-14865-000
SCI20100819131101KS259614,20100819131101,KYKTH0002704,GDSTH547067114,2010063000272352,0,975,1,975,0-975-21129-14883-000
SCI20100819134514KS261452,20100819134514,KYKTH0002704,GDSTH33450195,2010072700662486,0,9980,1,9980,0-9980-21129-14893-000
SCI20100819224355KS301711,20100819224355,KYKTH0002704,GDSTH953417214,2010072700640294,0,9980,1,9980,0-9980-21129-15010-000
SCI20100820131956KS334198,20100820131956,KYKTH0002704,GDSTH35403312,2010040500189899,0,975,1,975,0-975-21436-15231-000
SCI20100820183916KS356819,20100820183916,KYKTH0002704,GDSTH451109272,2010063000029826,0,975,1,975,0-975-21485-15360-000
SCI20100820210414KS370924,20100820210414,KYKTH0002704,GDSTH1222181065,2010081796282604,0,9980,1,9980,0-9980-20449-15415-000
SCI20100820222531KS379464,20100820222531,KYKTH0002704,GDSTH1056960014,2010072700591018,0,4980,1,4980,0-4980-19688-15442-000
SCI20100820224932KS381928,20100820224932,KYKTH0002704,GDSTH662340748,2010060495748110,0,9980,1,9980,0-9980-13487-15462-000
SCI20100821165909KS437184,20100821165909,KYKTH0002704,GDSTH1548213823,2010073000093675,0,1950,1,1950,0-1950-21536-15767-000
SCI20100822094624KS490548,20100822094624,KYKTH0002704,GDSTH2089173417,2010073000093675,0,975,1,975,0-975-21536-16015-000
SCI20100822164047KS513716,20100822164047,KYKTH0002704,GDSTH992881768,2010073000030193,0,975,1,975,0-975-22202-16116-000
SCI20100822164154KS513781,20100822164154,KYKTH0002704,GDSTH1550895183,2010073000030193,0,975,1,975,0-975-22202-16118-000
SCI20100822184138KS521699,20100822184138,KYKTH0002704,GDSTH1528260690,2010051900238745,0,975,1,975,0-975-22251-16172-000
SCI20100822230622KS541259,20100822230622,KYKTH0002704,GDSTH1758324143,2001011700019212,0,1950,1,1950,0-1950-15321-16289-000
SCI20100823010434KS548385,20100823010434,KYKTH0002704,GDSTH646214492,2010080200092275,0,9980,1,9980,0-9980-22397-16343-000
SCI20100823015412KS550149,20100823015412,KYKTH0002704,GDSTH1833809119,2010082396328512,0,1950,1,1950,0-1950-21959-16358-000
SCI20100823021227KS550698,20100823021227,KYKTH0002704,GDSTH59426177,2010082396328512,0,975,1,975,0-975-21959-16365-000
SCI20100823072724KS556128,20100823072725,KYKTH0002704,GDSTH528370011,2010082396328512,0,4980,1,4980,0-4980-21959-16382-000
SCI20100823083718KS557818,20100823083718,KYKTH0002704,GDSTH1183303998,2010072696108737,0,9980,1,9980,0-9980-22136-16393-000
SCI20100823143950KS572872,20100823143950,KYKTH0002704,GDSTH1862340126,2010060495748110,0,9980,1,9980,0-9980-13487-16484-000
SCI20100823144435KS573128,20100823144436,KYKTH0002704,GDSTH207512688,2010072700461382,0,1950,1,1950,0-1950-12726-16485-000
SCI20100823213402KS602920,20100823213403,KYKTH0002704,GDSTH69853998,2010072700185963,0,975,1,975,0-975-20471-16589-000
SCI20100823233242KS612765,20100823233242,KYKTH0002704,GDSTH1561615723,2010072700648689,0,9980,1,9980,0-9980-11511-16645-000
SCI20100824160250KS650422,20100824160250,KYKTH0002704,GDSTH1000804286,2008052200018624,0,975,1,975,0-975-22803-16903-000
SCI20100824163526KS652358,20100824163526,KYKTH0002704,GDSTH1854057427,2010073000037686,0,1950,1,1950,0-1950-12726-16917-000
SCI20100824200304KS670860,20100824200304,KYKTH0002704,GDSTH1344405433,2010060495748110,0,9980,1,9980,0-9980-13487-16987-000
SCI20100824232237KS690487,20100824232237,KYKTH0002704,GDSTH1875548842,2010072700235954,0,975,1,975,0-975-22936-17059-000
SCI20100824232823KS690910,20100824232823,KYKTH0002704,GDSTH1555142238,2010072700235954,0,975,1,975,0-975-22926-17063-000
SCI20100825003037KS695343,20100825003037,KYKTH0002704,GDSTH1366393281,2010072700611565,0,9980,1,9980,0-9980-22512-17083-000
SCI20100825183513KS744910,20100825183513,KYKTH0002704,GDSTH1430075936,2010072700192431,0,4980,1,4980,0-4980-21178-17358-000
SCI20100825221447KS771859,20100825221447,KYKTH0002704,GDSTH1051049622,2010072700648727,0,9980,1,9980,0-9980-22082-17430-000
SCI20100826171820KS828261,20100826171820,KYKTH0002704,GDSTH524035976,2010073000046927,0,1950,1,1950,0-1950-23320-17658-000
SCI20100826180200KS831917,20100826180200,KYKTH0002704,GDSTH1573851745,2010073000227148,0,6465,1,6465,1-6465-23155-17667-5562
SCI20100826204049KS848432,20100826204049,KYKTH0002704,GDSTH1160381302,2010072700027457,0,975,1,975,0-975-23195-17719-000
SCI20100826231046KS864343,20100826231046,KYKTH0002704,GDSTH322245387,2010082670642431,0,2040,1,2040,1-2040-22884-17767-5563
